^C:\PROGRAM FILES (X86)\STEAM\STEAMAPPS\COMMON\EMERGENCY 2017\SDK\SAMPLE_PLUGINS\PLUGIN_DEKONP\GAME_PLUGIN\GAME_PLUGIN\PRECOMPILEDHEADER.CPP
C:\PROGRAM FILES (X86)\STEAM\STEAMAPPS\COMMON\EMERGENCY 2017\SDK\SAMPLE_PLUGINS\PLUGIN_DEKONP\TMP\VC11\X64_RELEASE\PLUGIN_DEKONP\PLUGIN_DEKONP.PCH
C:\PROGRAM FILES (X86)\STEAM\STEAMAPPS\COMMON\EMERGENCY 2017\SDK\SAMPLE_PLUGINS\PLUGIN_DEKONP\TMP\VC11\X64_RELEASE\PLUGIN_DEKONP\VC140.PDB
C:\PROGRAM FILES (X86)\STEAM\STEAMAPPS\COMMON\EMERGENCY 2017\SDK\SAMPLE_PLUGINS\PLUGIN_DEKONP\TMP\VC11\X64_RELEASE\PLUGIN_DEKONP\PRECOMPILEDHEADER.OBJ
^C:\PROGRAM FILES (X86)\STEAM\STEAMAPPS\COMMON\EMERGENCY 2017\SDK\SAMPLE_PLUGINS\PLUGIN_DEKONP\GAME_PLUGIN\GAME_PLUGIN\COMMANDMODE\TENTDISPLACEMENTCOMMANDMODE.CPP|C:\PROGRAM FILES (X86)\STEAM\STEAMAPPS\COMMON\EMERGENCY 2017\SDK\SAMPLE_PLUGINS\PLUGIN_DEKONP\GAME_PLUGIN\GAME_PLUGIN\COMMANDMODE\TENTPLACEMENTCOMMANDMODE.CPP|C:\PROGRAM FILES (X86)\STEAM\STEAMAPPS\COMMON\EMERGENCY 2017\SDK\SAMPLE_PLUGINS\PLUGIN_DEKONP\GAME_PLUGIN\GAME_PLUGIN\COMMAND\CHANGETOCSACOMMAND.CPP|C:\PROGRAM FILES (X86)\STEAM\STEAMAPPS\COMMON\EMERGENCY 2017\SDK\SAMPLE_PLUGINS\PLUGIN_DEKONP\GAME_PLUGIN\GAME_PLUGIN\COMMAND\CHANGETONORMALCOMMAND.CPP|C:\PROGRAM FILES (X86)\STEAM\STEAMAPPS\COMMON\EMERGENCY 2017\SDK\SAMPLE_PLUGINS\PLUGIN_DEKONP\GAME_PLUGIN\GAME_PLUGIN\COMMAND\TENTDISPLACEMENTCOMMAND.CPP|C:\PROGRAM FILES (X86)\STEAM\STEAMAPPS\COMMON\EMERGENCY 2017\SDK\SAMPLE_PLUGINS\PLUGIN_DEKONP\GAME_PLUGIN\GAME_PLUGIN\COMMAND\TENTPLACEMENTCOMMAND.CPP|C:\PROGRAM FILES (X86)\STEAM\STEAMAPPS\COMMON\EMERGENCY 2017\SDK\SAMPLE_PLUGINS\PLUGIN_DEKONP\GAME_PLUGIN\GAME_PLUGIN\MAIN.CPP|C:\PROGRAM FILES (X86)\STEAM\STEAMAPPS\COMMON\EMERGENCY 2017\SDK\SAMPLE_PLUGINS\PLUGIN_DEKONP\GAME_PLUGIN\GAME_PLUGIN\PLUGIN\PLUGIN.CPP
C:\PROGRAM FILES (X86)\STEAM\STEAMAPPS\COMMON\EMERGENCY 2017\SDK\SAMPLE_PLUGINS\PLUGIN_DEKONP\TMP\VC11\X64_RELEASE\PLUGIN_DEKONP\TENTPLACEMENTCOMMANDMODE.OBJ
C:\PROGRAM FILES (X86)\STEAM\STEAMAPPS\COMMON\EMERGENCY 2017\SDK\SAMPLE_PLUGINS\PLUGIN_DEKONP\TMP\VC11\X64_RELEASE\PLUGIN_DEKONP\PLUGIN.OBJ
C:\PROGRAM FILES (X86)\STEAM\STEAMAPPS\COMMON\EMERGENCY 2017\SDK\SAMPLE_PLUGINS\PLUGIN_DEKONP\TMP\VC11\X64_RELEASE\PLUGIN_DEKONP\CHANGETOCSACOMMAND.OBJ
C:\PROGRAM FILES (X86)\STEAM\STEAMAPPS\COMMON\EMERGENCY 2017\SDK\SAMPLE_PLUGINS\PLUGIN_DEKONP\TMP\VC11\X64_RELEASE\PLUGIN_DEKONP\CHANGETONORMALCOMMAND.OBJ
C:\PROGRAM FILES (X86)\STEAM\STEAMAPPS\COMMON\EMERGENCY 2017\SDK\SAMPLE_PLUGINS\PLUGIN_DEKONP\TMP\VC11\X64_RELEASE\PLUGIN_DEKONP\TENTPLACEMENTCOMMAND.OBJ
C:\PROGRAM FILES (X86)\STEAM\STEAMAPPS\COMMON\EMERGENCY 2017\SDK\SAMPLE_PLUGINS\PLUGIN_DEKONP\TMP\VC11\X64_RELEASE\PLUGIN_DEKONP\TENTDISPLACEMENTCOMMAND.OBJ
C:\PROGRAM FILES (X86)\STEAM\STEAMAPPS\COMMON\EMERGENCY 2017\SDK\SAMPLE_PLUGINS\PLUGIN_DEKONP\TMP\VC11\X64_RELEASE\PLUGIN_DEKONP\MAIN.OBJ
C:\PROGRAM FILES (X86)\STEAM\STEAMAPPS\COMMON\EMERGENCY 2017\SDK\SAMPLE_PLUGINS\PLUGIN_DEKONP\TMP\VC11\X64_RELEASE\PLUGIN_DEKONP\TENTDISPLACEMENTCOMMANDMODE.OBJ
^C:\PROGRAM FILES (X86)\STEAM\STEAMAPPS\COMMON\EMERGENCY 2017\SDK\SAMPLE_PLUGINS\PLUGIN_DEKONP\GAME_PLUGIN\GAME_PLUGIN\COMMANDMODE\TENTDISPLACEMENTCOMMANDMODE.CPP
C:\PROGRAM FILES (X86)\STEAM\STEAMAPPS\COMMON\EMERGENCY 2017\SDK\SAMPLE_PLUGINS\PLUGIN_DEKONP\TMP\VC11\X64_RELEASE\PLUGIN_DEKONP\VC140.PDB
^C:\PROGRAM FILES (X86)\STEAM\STEAMAPPS\COMMON\EMERGENCY 2017\SDK\SAMPLE_PLUGINS\PLUGIN_DEKONP\GAME_PLUGIN\GAME_PLUGIN\COMMAND\TENTDISPLACEMENTCOMMAND.CPP
C:\PROGRAM FILES (X86)\STEAM\STEAMAPPS\COMMON\EMERGENCY 2017\SDK\SAMPLE_PLUGINS\PLUGIN_DEKONP\TMP\VC11\X64_RELEASE\PLUGIN_DEKONP\VC140.PDB
^C:\PROGRAM FILES (X86)\STEAM\STEAMAPPS\COMMON\EMERGENCY 2017\SDK\SAMPLE_PLUGINS\PLUGIN_DEKONP\GAME_PLUGIN\GAME_PLUGIN\COMMAND\TENTPLACEMENTCOMMAND.CPP
C:\PROGRAM FILES (X86)\STEAM\STEAMAPPS\COMMON\EMERGENCY 2017\SDK\SAMPLE_PLUGINS\PLUGIN_DEKONP\TMP\VC11\X64_RELEASE\PLUGIN_DEKONP\VC140.PDB
^C:\PROGRAM FILES (X86)\STEAM\STEAMAPPS\COMMON\EMERGENCY 2017\SDK\SAMPLE_PLUGINS\PLUGIN_DEKONP\GAME_PLUGIN\GAME_PLUGIN\MAIN.CPP
C:\PROGRAM FILES (X86)\STEAM\STEAMAPPS\COMMON\EMERGENCY 2017\SDK\SAMPLE_PLUGINS\PLUGIN_DEKONP\TMP\VC11\X64_RELEASE\PLUGIN_DEKONP\VC140.PDB
^C:\PROGRAM FILES (X86)\STEAM\STEAMAPPS\COMMON\EMERGENCY 2017\SDK\SAMPLE_PLUGINS\PLUGIN_DEKONP\GAME_PLUGIN\GAME_PLUGIN\ACTION\CHANGEACTION.CPP|C:\PROGRAM FILES (X86)\STEAM\STEAMAPPS\COMMON\EMERGENCY 2017\SDK\SAMPLE_PLUGINS\PLUGIN_DEKONP\GAME_PLUGIN\GAME_PLUGIN\PLUGIN\PLUGIN.CPP
C:\PROGRAM FILES (X86)\STEAM\STEAMAPPS\COMMON\EMERGENCY 2017\SDK\SAMPLE_PLUGINS\PLUGIN_DEKONP\TMP\VC11\X64_RELEASE\PLUGIN_DEKONP\PLUGIN.OBJ
^C:\PROGRAM FILES (X86)\STEAM\STEAMAPPS\COMMON\EMERGENCY 2017\SDK\SAMPLE_PLUGINS\PLUGIN_DEKONP\GAME_PLUGIN\GAME_PLUGIN\ACTION\CHANGEACTION.CPP|C:\PROGRAM FILES (X86)\STEAM\STEAMAPPS\COMMON\EMERGENCY 2017\SDK\SAMPLE_PLUGINS\PLUGIN_DEKONP\GAME_PLUGIN\GAME_PLUGIN\COMMAND\CHANGETOCSACOMMAND.CPP|C:\PROGRAM FILES (X86)\STEAM\STEAMAPPS\COMMON\EMERGENCY 2017\SDK\SAMPLE_PLUGINS\PLUGIN_DEKONP\GAME_PLUGIN\GAME_PLUGIN\PLUGIN\PLUGIN.CPP
C:\PROGRAM FILES (X86)\STEAM\STEAMAPPS\COMMON\EMERGENCY 2017\SDK\SAMPLE_PLUGINS\PLUGIN_DEKONP\TMP\VC11\X64_RELEASE\PLUGIN_DEKONP\CHANGEACTION.OBJ
C:\PROGRAM FILES (X86)\STEAM\STEAMAPPS\COMMON\EMERGENCY 2017\SDK\SAMPLE_PLUGINS\PLUGIN_DEKONP\TMP\VC11\X64_RELEASE\PLUGIN_DEKONP\PLUGIN.OBJ
C:\PROGRAM FILES (X86)\STEAM\STEAMAPPS\COMMON\EMERGENCY 2017\SDK\SAMPLE_PLUGINS\PLUGIN_DEKONP\TMP\VC11\X64_RELEASE\PLUGIN_DEKONP\CHANGETOCSACOMMAND.OBJ
^C:\PROGRAM FILES (X86)\STEAM\STEAMAPPS\COMMON\EMERGENCY 2017\SDK\SAMPLE_PLUGINS\PLUGIN_DEKONP\GAME_PLUGIN\GAME_PLUGIN\ACTION\CHANGEACTION.CPP
C:\PROGRAM FILES (X86)\STEAM\STEAMAPPS\COMMON\EMERGENCY 2017\SDK\SAMPLE_PLUGINS\PLUGIN_DEKONP\TMP\VC11\X64_RELEASE\PLUGIN_DEKONP\VC140.PDB
^C:\PROGRAM FILES (X86)\STEAM\STEAMAPPS\COMMON\EMERGENCY 2017\SDK\SAMPLE_PLUGINS\PLUGIN_DEKONP\GAME_PLUGIN\GAME_PLUGIN\COMMANDMODE\TENTPLACEMENTCOMMANDMODE.CPP|C:\PROGRAM FILES (X86)\STEAM\STEAMAPPS\COMMON\EMERGENCY 2017\SDK\SAMPLE_PLUGINS\PLUGIN_DEKONP\GAME_PLUGIN\GAME_PLUGIN\COMMAND\CHANGETOCSACOMMAND.CPP
C:\PROGRAM FILES (X86)\STEAM\STEAMAPPS\COMMON\EMERGENCY 2017\SDK\SAMPLE_PLUGINS\PLUGIN_DEKONP\TMP\VC11\X64_RELEASE\PLUGIN_DEKONP\TENTPLACEMENTCOMMANDMODE.OBJ
^C:\PROGRAM FILES (X86)\STEAM\STEAMAPPS\COMMON\EMERGENCY 2017\SDK\SAMPLE_PLUGINS\PLUGIN_DEKONP\GAME_PLUGIN\GAME_PLUGIN\COMMANDMODE\TENTPLACEMENTCOMMANDMODE.CPP
C:\PROGRAM FILES (X86)\STEAM\STEAMAPPS\COMMON\EMERGENCY 2017\SDK\SAMPLE_PLUGINS\PLUGIN_DEKONP\TMP\VC11\X64_RELEASE\PLUGIN_DEKONP\TENTPLACEMENTCOMMANDMODE.OBJ
^C:\PROGRAM FILES (X86)\STEAM\STEAMAPPS\COMMON\EMERGENCY 2017\SDK\SAMPLE_PLUGINS\PLUGIN_DEKONP\GAME_PLUGIN\GAME_PLUGIN\COMMAND\CHANGETOCSACOMMAND.CPP|C:\PROGRAM FILES (X86)\STEAM\STEAMAPPS\COMMON\EMERGENCY 2017\SDK\SAMPLE_PLUGINS\PLUGIN_DEKONP\GAME_PLUGIN\GAME_PLUGIN\PLUGIN\PLUGIN.CPP
^C:\PROGRAM FILES (X86)\STEAM\STEAMAPPS\COMMON\EMERGENCY 2017\SDK\SAMPLE_PLUGINS\PLUGIN_DEKONP\GAME_PLUGIN\GAME_PLUGIN\ACTION\DELETEPERSONACTION.CPP|C:\PROGRAM FILES (X86)\STEAM\STEAMAPPS\COMMON\EMERGENCY 2017\SDK\SAMPLE_PLUGINS\PLUGIN_DEKONP\GAME_PLUGIN\GAME_PLUGIN\ACTION\SPAWNACTION.CPP|C:\PROGRAM FILES (X86)\STEAM\STEAMAPPS\COMMON\EMERGENCY 2017\SDK\SAMPLE_PLUGINS\PLUGIN_DEKONP\GAME_PLUGIN\GAME_PLUGIN\ACTION\TRANSFORMACTION.CPP|C:\PROGRAM FILES (X86)\STEAM\STEAMAPPS\COMMON\EMERGENCY 2017\SDK\SAMPLE_PLUGINS\PLUGIN_DEKONP\GAME_PLUGIN\GAME_PLUGIN\COMMAND\CHANGETOCSACOMMAND.CPP|C:\PROGRAM FILES (X86)\STEAM\STEAMAPPS\COMMON\EMERGENCY 2017\SDK\SAMPLE_PLUGINS\PLUGIN_DEKONP\GAME_PLUGIN\GAME_PLUGIN\COMPONENT\SWITCHCOMPONENT.CPP|C:\PROGRAM FILES (X86)\STEAM\STEAMAPPS\COMMON\EMERGENCY 2017\SDK\SAMPLE_PLUGINS\PLUGIN_DEKONP\GAME_PLUGIN\GAME_PLUGIN\PLUGIN\PLUGIN.CPP
C:\PROGRAM FILES (X86)\STEAM\STEAMAPPS\COMMON\EMERGENCY 2017\SDK\SAMPLE_PLUGINS\PLUGIN_DEKONP\TMP\VC11\X64_RELEASE\PLUGIN_DEKONP\SWITCHCOMPONENT.OBJ
^C:\PROGRAM FILES (X86)\STEAM\STEAMAPPS\COMMON\EMERGENCY 2017\SDK\SAMPLE_PLUGINS\PLUGIN_DEKONP\GAME_PLUGIN\GAME_PLUGIN\ACTION\DELETEPERSONACTION.CPP|C:\PROGRAM FILES (X86)\STEAM\STEAMAPPS\COMMON\EMERGENCY 2017\SDK\SAMPLE_PLUGINS\PLUGIN_DEKONP\GAME_PLUGIN\GAME_PLUGIN\ACTION\SPAWNACTION.CPP|C:\PROGRAM FILES (X86)\STEAM\STEAMAPPS\COMMON\EMERGENCY 2017\SDK\SAMPLE_PLUGINS\PLUGIN_DEKONP\GAME_PLUGIN\GAME_PLUGIN\ACTION\TRANSFORMACTION.CPP|C:\PROGRAM FILES (X86)\STEAM\STEAMAPPS\COMMON\EMERGENCY 2017\SDK\SAMPLE_PLUGINS\PLUGIN_DEKONP\GAME_PLUGIN\GAME_PLUGIN\COMMAND\CHANGETOCSACOMMAND.CPP|C:\PROGRAM FILES (X86)\STEAM\STEAMAPPS\COMMON\EMERGENCY 2017\SDK\SAMPLE_PLUGINS\PLUGIN_DEKONP\GAME_PLUGIN\GAME_PLUGIN\PLUGIN\PLUGIN.CPP
C:\PROGRAM FILES (X86)\STEAM\STEAMAPPS\COMMON\EMERGENCY 2017\SDK\SAMPLE_PLUGINS\PLUGIN_DEKONP\TMP\VC11\X64_RELEASE\PLUGIN_DEKONP\PLUGIN.OBJ
^C:\PROGRAM FILES (X86)\STEAM\STEAMAPPS\COMMON\EMERGENCY 2017\SDK\SAMPLE_PLUGINS\PLUGIN_DEKONP\GAME_PLUGIN\GAME_PLUGIN\ACTION\DELETEPERSONACTION.CPP|C:\PROGRAM FILES (X86)\STEAM\STEAMAPPS\COMMON\EMERGENCY 2017\SDK\SAMPLE_PLUGINS\PLUGIN_DEKONP\GAME_PLUGIN\GAME_PLUGIN\ACTION\SPAWNACTION.CPP|C:\PROGRAM FILES (X86)\STEAM\STEAMAPPS\COMMON\EMERGENCY 2017\SDK\SAMPLE_PLUGINS\PLUGIN_DEKONP\GAME_PLUGIN\GAME_PLUGIN\ACTION\TRANSFORMACTION.CPP|C:\PROGRAM FILES (X86)\STEAM\STEAMAPPS\COMMON\EMERGENCY 2017\SDK\SAMPLE_PLUGINS\PLUGIN_DEKONP\GAME_PLUGIN\GAME_PLUGIN\COMMAND\CHANGETOCSACOMMAND.CPP
C:\PROGRAM FILES (X86)\STEAM\STEAMAPPS\COMMON\EMERGENCY 2017\SDK\SAMPLE_PLUGINS\PLUGIN_DEKONP\TMP\VC11\X64_RELEASE\PLUGIN_DEKONP\TRANSFORMACTION.OBJ
C:\PROGRAM FILES (X86)\STEAM\STEAMAPPS\COMMON\EMERGENCY 2017\SDK\SAMPLE_PLUGINS\PLUGIN_DEKONP\TMP\VC11\X64_RELEASE\PLUGIN_DEKONP\DELETEPERSONACTION.OBJ
C:\PROGRAM FILES (X86)\STEAM\STEAMAPPS\COMMON\EMERGENCY 2017\SDK\SAMPLE_PLUGINS\PLUGIN_DEKONP\TMP\VC11\X64_RELEASE\PLUGIN_DEKONP\SPAWNACTION.OBJ
^C:\PROGRAM FILES (X86)\STEAM\STEAMAPPS\COMMON\EMERGENCY 2017\SDK\SAMPLE_PLUGINS\PLUGIN_DEKONP\GAME_PLUGIN\GAME_PLUGIN\ACTION\DELETEPERSONACTION.CPP
C:\PROGRAM FILES (X86)\STEAM\STEAMAPPS\COMMON\EMERGENCY 2017\SDK\SAMPLE_PLUGINS\PLUGIN_DEKONP\TMP\VC11\X64_RELEASE\PLUGIN_DEKONP\DELETEPERSONACTION.OBJ
^C:\PROGRAM FILES (X86)\STEAM\STEAMAPPS\COMMON\EMERGENCY 2017\SDK\SAMPLE_PLUGINS\PLUGIN_DEKONP\GAME_PLUGIN\GAME_PLUGIN\ACTION\TRANSFORMACTION.CPP
C:\PROGRAM FILES (X86)\STEAM\STEAMAPPS\COMMON\EMERGENCY 2017\SDK\SAMPLE_PLUGINS\PLUGIN_DEKONP\TMP\VC11\X64_RELEASE\PLUGIN_DEKONP\TRANSFORMACTION.OBJ
^C:\PROGRAM FILES (X86)\STEAM\STEAMAPPS\COMMON\EMERGENCY 2017\SDK\SAMPLE_PLUGINS\PLUGIN_DEKONP\GAME_PLUGIN\GAME_PLUGIN\ACTION\SPAWNACTION.CPP|C:\PROGRAM FILES (X86)\STEAM\STEAMAPPS\COMMON\EMERGENCY 2017\SDK\SAMPLE_PLUGINS\PLUGIN_DEKONP\GAME_PLUGIN\GAME_PLUGIN\COMMAND\CHANGETOCSACOMMAND.CPP|C:\PROGRAM FILES (X86)\STEAM\STEAMAPPS\COMMON\EMERGENCY 2017\SDK\SAMPLE_PLUGINS\PLUGIN_DEKONP\GAME_PLUGIN\GAME_PLUGIN\COMPONENT\SWITCHCOMPONENT.CPP
C:\PROGRAM FILES (X86)\STEAM\STEAMAPPS\COMMON\EMERGENCY 2017\SDK\SAMPLE_PLUGINS\PLUGIN_DEKONP\TMP\VC11\X64_RELEASE\PLUGIN_DEKONP\CHANGETOCSACOMMAND.OBJ
C:\PROGRAM FILES (X86)\STEAM\STEAMAPPS\COMMON\EMERGENCY 2017\SDK\SAMPLE_PLUGINS\PLUGIN_DEKONP\TMP\VC11\X64_RELEASE\PLUGIN_DEKONP\SWITCHCOMPONENT.OBJ
C:\PROGRAM FILES (X86)\STEAM\STEAMAPPS\COMMON\EMERGENCY 2017\SDK\SAMPLE_PLUGINS\PLUGIN_DEKONP\TMP\VC11\X64_RELEASE\PLUGIN_DEKONP\SPAWNACTION.OBJ
^C:\PROGRAM FILES (X86)\STEAM\STEAMAPPS\COMMON\EMERGENCY 2017\SDK\SAMPLE_PLUGINS\PLUGIN_DEKONP\GAME_PLUGIN\GAME_PLUGIN\ACTION\SPAWNACTION.CPP
C:\PROGRAM FILES (X86)\STEAM\STEAMAPPS\COMMON\EMERGENCY 2017\SDK\SAMPLE_PLUGINS\PLUGIN_DEKONP\TMP\VC11\X64_RELEASE\PLUGIN_DEKONP\VC140.PDB
C:\PROGRAM FILES (X86)\STEAM\STEAMAPPS\COMMON\EMERGENCY 2017\SDK\SAMPLE_PLUGINS\PLUGIN_DEKONP\TMP\VC11\X64_RELEASE\PLUGIN_DEKONP\SPAWNACTION.OBJ
^C:\PROGRAM FILES (X86)\STEAM\STEAMAPPS\COMMON\EMERGENCY 2017\SDK\SAMPLE_PLUGINS\PLUGIN_DEKONP\GAME_PLUGIN\GAME_PLUGIN\COMMAND\CHANGETOCSACOMMAND.CPP|C:\PROGRAM FILES (X86)\STEAM\STEAMAPPS\COMMON\EMERGENCY 2017\SDK\SAMPLE_PLUGINS\PLUGIN_DEKONP\GAME_PLUGIN\GAME_PLUGIN\COMPONENT\SWITCHCOMPONENT.CPP
C:\PROGRAM FILES (X86)\STEAM\STEAMAPPS\COMMON\EMERGENCY 2017\SDK\SAMPLE_PLUGINS\PLUGIN_DEKONP\TMP\VC11\X64_RELEASE\PLUGIN_DEKONP\CHANGETOCSACOMMAND.OBJ
C:\PROGRAM FILES (X86)\STEAM\STEAMAPPS\COMMON\EMERGENCY 2017\SDK\SAMPLE_PLUGINS\PLUGIN_DEKONP\TMP\VC11\X64_RELEASE\PLUGIN_DEKONP\SWITCHCOMPONENT.OBJ
^C:\PROGRAM FILES (X86)\STEAM\STEAMAPPS\COMMON\EMERGENCY 2017\SDK\SAMPLE_PLUGINS\PLUGIN_DEKONP\GAME_PLUGIN\GAME_PLUGIN\ACTION\SPAWNNORMALACTION.CPP|C:\PROGRAM FILES (X86)\STEAM\STEAMAPPS\COMMON\EMERGENCY 2017\SDK\SAMPLE_PLUGINS\PLUGIN_DEKONP\GAME_PLUGIN\GAME_PLUGIN\COMMAND\CHANGETOCSACOMMAND.CPP|C:\PROGRAM FILES (X86)\STEAM\STEAMAPPS\COMMON\EMERGENCY 2017\SDK\SAMPLE_PLUGINS\PLUGIN_DEKONP\GAME_PLUGIN\GAME_PLUGIN\COMMAND\CHANGETONORMALCOMMAND.CPP|C:\PROGRAM FILES (X86)\STEAM\STEAMAPPS\COMMON\EMERGENCY 2017\SDK\SAMPLE_PLUGINS\PLUGIN_DEKONP\GAME_PLUGIN\GAME_PLUGIN\COMPONENT\SWITCHTWOCOMPONENT.CPP|C:\PROGRAM FILES (X86)\STEAM\STEAMAPPS\COMMON\EMERGENCY 2017\SDK\SAMPLE_PLUGINS\PLUGIN_DEKONP\GAME_PLUGIN\GAME_PLUGIN\PLUGIN\PLUGIN.CPP
C:\PROGRAM FILES (X86)\STEAM\STEAMAPPS\COMMON\EMERGENCY 2017\SDK\SAMPLE_PLUGINS\PLUGIN_DEKONP\TMP\VC11\X64_RELEASE\PLUGIN_DEKONP\SWITCHTWOCOMPONENT.OBJ
C:\PROGRAM FILES (X86)\STEAM\STEAMAPPS\COMMON\EMERGENCY 2017\SDK\SAMPLE_PLUGINS\PLUGIN_DEKONP\TMP\VC11\X64_RELEASE\PLUGIN_DEKONP\CHANGETOCSACOMMAND.OBJ
C:\PROGRAM FILES (X86)\STEAM\STEAMAPPS\COMMON\EMERGENCY 2017\SDK\SAMPLE_PLUGINS\PLUGIN_DEKONP\TMP\VC11\X64_RELEASE\PLUGIN_DEKONP\SPAWNNORMALACTION.OBJ
C:\PROGRAM FILES (X86)\STEAM\STEAMAPPS\COMMON\EMERGENCY 2017\SDK\SAMPLE_PLUGINS\PLUGIN_DEKONP\TMP\VC11\X64_RELEASE\PLUGIN_DEKONP\PLUGIN.OBJ
C:\PROGRAM FILES (X86)\STEAM\STEAMAPPS\COMMON\EMERGENCY 2017\SDK\SAMPLE_PLUGINS\PLUGIN_DEKONP\TMP\VC11\X64_RELEASE\PLUGIN_DEKONP\CHANGETONORMALCOMMAND.OBJ
^C:\PROGRAM FILES (X86)\STEAM\STEAMAPPS\COMMON\EMERGENCY 2017\SDK\SAMPLE_PLUGINS\PLUGIN_DEKONP\GAME_PLUGIN\GAME_PLUGIN\COMPONENT\SWITCHCOMPONENT.CPP
C:\PROGRAM FILES (X86)\STEAM\STEAMAPPS\COMMON\EMERGENCY 2017\SDK\SAMPLE_PLUGINS\PLUGIN_DEKONP\TMP\VC11\X64_RELEASE\PLUGIN_DEKONP\VC140.PDB
C:\PROGRAM FILES (X86)\STEAM\STEAMAPPS\COMMON\EMERGENCY 2017\SDK\SAMPLE_PLUGINS\PLUGIN_DEKONP\TMP\VC11\X64_RELEASE\PLUGIN_DEKONP\SWITCHCOMPONENT.OBJ
^C:\PROGRAM FILES (X86)\STEAM\STEAMAPPS\COMMON\EMERGENCY 2017\SDK\SAMPLE_PLUGINS\PLUGIN_DEKONP\GAME_PLUGIN\GAME_PLUGIN\ACTION\SPAWNNORMALACTION.CPP
C:\PROGRAM FILES (X86)\STEAM\STEAMAPPS\COMMON\EMERGENCY 2017\SDK\SAMPLE_PLUGINS\PLUGIN_DEKONP\TMP\VC11\X64_RELEASE\PLUGIN_DEKONP\VC140.PDB
C:\PROGRAM FILES (X86)\STEAM\STEAMAPPS\COMMON\EMERGENCY 2017\SDK\SAMPLE_PLUGINS\PLUGIN_DEKONP\TMP\VC11\X64_RELEASE\PLUGIN_DEKONP\SPAWNNORMALACTION.OBJ
^C:\PROGRAM FILES (X86)\STEAM\STEAMAPPS\COMMON\EMERGENCY 2017\SDK\SAMPLE_PLUGINS\PLUGIN_DEKONP\GAME_PLUGIN\GAME_PLUGIN\COMMAND\CHANGETOCSACOMMAND.CPP|C:\PROGRAM FILES (X86)\STEAM\STEAMAPPS\COMMON\EMERGENCY 2017\SDK\SAMPLE_PLUGINS\PLUGIN_DEKONP\GAME_PLUGIN\GAME_PLUGIN\COMPONENT\SWITCHTWOCOMPONENT.CPP|C:\PROGRAM FILES (X86)\STEAM\STEAMAPPS\COMMON\EMERGENCY 2017\SDK\SAMPLE_PLUGINS\PLUGIN_DEKONP\GAME_PLUGIN\GAME_PLUGIN\PLUGIN\PLUGIN.CPP
C:\PROGRAM FILES (X86)\STEAM\STEAMAPPS\COMMON\EMERGENCY 2017\SDK\SAMPLE_PLUGINS\PLUGIN_DEKONP\TMP\VC11\X64_RELEASE\PLUGIN_DEKONP\SWITCHTWOCOMPONENT.OBJ
C:\PROGRAM FILES (X86)\STEAM\STEAMAPPS\COMMON\EMERGENCY 2017\SDK\SAMPLE_PLUGINS\PLUGIN_DEKONP\TMP\VC11\X64_RELEASE\PLUGIN_DEKONP\PLUGIN.OBJ
^C:\PROGRAM FILES (X86)\STEAM\STEAMAPPS\COMMON\EMERGENCY 2017\SDK\SAMPLE_PLUGINS\PLUGIN_DEKONP\GAME_PLUGIN\GAME_PLUGIN\COMPONENT\SWITCHTWOCOMPONENT.CPP
C:\PROGRAM FILES (X86)\STEAM\STEAMAPPS\COMMON\EMERGENCY 2017\SDK\SAMPLE_PLUGINS\PLUGIN_DEKONP\TMP\VC11\X64_RELEASE\PLUGIN_DEKONP\SWITCHTWOCOMPONENT.OBJ
^C:\PROGRAM FILES (X86)\STEAM\STEAMAPPS\COMMON\EMERGENCY 2017\SDK\SAMPLE_PLUGINS\PLUGIN_DEKONP\GAME_PLUGIN\GAME_PLUGIN\PLUGIN\PLUGIN.CPP
C:\PROGRAM FILES (X86)\STEAM\STEAMAPPS\COMMON\EMERGENCY 2017\SDK\SAMPLE_PLUGINS\PLUGIN_DEKONP\TMP\VC11\X64_RELEASE\PLUGIN_DEKONP\PLUGIN.OBJ
^C:\PROGRAM FILES (X86)\STEAM\STEAMAPPS\COMMON\EMERGENCY 2017\SDK\SAMPLE_PLUGINS\PLUGIN_DEKONP\GAME_PLUGIN\GAME_PLUGIN\COMMAND\CHANGETOCSACOMMAND.CPP|C:\PROGRAM FILES (X86)\STEAM\STEAMAPPS\COMMON\EMERGENCY 2017\SDK\SAMPLE_PLUGINS\PLUGIN_DEKONP\GAME_PLUGIN\GAME_PLUGIN\COMMAND\CHANGETONORMALCOMMAND.CPP
C:\PROGRAM FILES (X86)\STEAM\STEAMAPPS\COMMON\EMERGENCY 2017\SDK\SAMPLE_PLUGINS\PLUGIN_DEKONP\TMP\VC11\X64_RELEASE\PLUGIN_DEKONP\CHANGETOCSACOMMAND.OBJ
C:\PROGRAM FILES (X86)\STEAM\STEAMAPPS\COMMON\EMERGENCY 2017\SDK\SAMPLE_PLUGINS\PLUGIN_DEKONP\TMP\VC11\X64_RELEASE\PLUGIN_DEKONP\CHANGETONORMALCOMMAND.OBJ
^C:\PROGRAM FILES (X86)\STEAM\STEAMAPPS\COMMON\EMERGENCY 2017\SDK\SAMPLE_PLUGINS\PLUGIN_DEKONP\GAME_PLUGIN\GAME_PLUGIN\COMMAND\CHANGETOCSACOMMAND.CPP
C:\PROGRAM FILES (X86)\STEAM\STEAMAPPS\COMMON\EMERGENCY 2017\SDK\SAMPLE_PLUGINS\PLUGIN_DEKONP\TMP\VC11\X64_RELEASE\PLUGIN_DEKONP\VC140.PDB
^C:\PROGRAM FILES (X86)\STEAM\STEAMAPPS\COMMON\EMERGENCY 2017\SDK\SAMPLE_PLUGINS\PLUGIN_DEKONP\GAME_PLUGIN\GAME_PLUGIN\COMMAND\CHANGETONORMALCOMMAND.CPP
C:\PROGRAM FILES (X86)\STEAM\STEAMAPPS\COMMON\EMERGENCY 2017\SDK\SAMPLE_PLUGINS\PLUGIN_DEKONP\TMP\VC11\X64_RELEASE\PLUGIN_DEKONP\VC140.PDB
