^C:\PROGRAM FILES (X86)\STEAM\STEAMAPPS\COMMON\EMERGENCY 2017\SDK\SAMPLE_PLUGINS\PLUGIN_DEKONP\TMP\VC11\X64_RELEASE\PLUGIN_DEKONP\CHANGETOCSACOMMAND.OBJ|C:\PROGRAM FILES (X86)\STEAM\STEAMAPPS\COMMON\EMERGENCY 2017\SDK\SAMPLE_PLUGINS\PLUGIN_DEKONP\TMP\VC11\X64_RELEASE\PLUGIN_DEKONP\CHANGETONORMALCOMMAND.OBJ|C:\PROGRAM FILES (X86)\STEAM\STEAMAPPS\COMMON\EMERGENCY 2017\SDK\SAMPLE_PLUGINS\PLUGIN_DEKONP\TMP\VC11\X64_RELEASE\PLUGIN_DEKONP\DELETEPERSONACTION.OBJ|C:\PROGRAM FILES (X86)\STEAM\STEAMAPPS\COMMON\EMERGENCY 2017\SDK\SAMPLE_PLUGINS\PLUGIN_DEKONP\TMP\VC11\X64_RELEASE\PLUGIN_DEKONP\MAIN.OBJ|C:\PROGRAM FILES (X86)\STEAM\STEAMAPPS\COMMON\EMERGENCY 2017\SDK\SAMPLE_PLUGINS\PLUGIN_DEKONP\TMP\VC11\X64_RELEASE\PLUGIN_DEKONP\PLUGIN.OBJ|C:\PROGRAM FILES (X86)\STEAM\STEAMAPPS\COMMON\EMERGENCY 2017\SDK\SAMPLE_PLUGINS\PLUGIN_DEKONP\TMP\VC11\X64_RELEASE\PLUGIN_DEKONP\PRECOMPILEDHEADER.OBJ|C:\PROGRAM FILES (X86)\STEAM\STEAMAPPS\COMMON\EMERGENCY 2017\SDK\SAMPLE_PLUGINS\PLUGIN_DEKONP\TMP\VC11\X64_RELEASE\PLUGIN_DEKONP\SPAWNACTION.OBJ|C:\PROGRAM FILES (X86)\STEAM\STEAMAPPS\COMMON\EMERGENCY 2017\SDK\SAMPLE_PLUGINS\PLUGIN_DEKONP\TMP\VC11\X64_RELEASE\PLUGIN_DEKONP\SPAWNNORMALACTION.OBJ|C:\PROGRAM FILES (X86)\STEAM\STEAMAPPS\COMMON\EMERGENCY 2017\SDK\SAMPLE_PLUGINS\PLUGIN_DEKONP\TMP\VC11\X64_RELEASE\PLUGIN_DEKONP\SWITCHCOMPONENT.OBJ|C:\PROGRAM FILES (X86)\STEAM\STEAMAPPS\COMMON\EMERGENCY 2017\SDK\SAMPLE_PLUGINS\PLUGIN_DEKONP\TMP\VC11\X64_RELEASE\PLUGIN_DEKONP\SWITCHTWOCOMPONENT.OBJ|C:\PROGRAM FILES (X86)\STEAM\STEAMAPPS\COMMON\EMERGENCY 2017\SDK\SAMPLE_PLUGINS\PLUGIN_DEKONP\TMP\VC11\X64_RELEASE\PLUGIN_DEKONP\TENTDISPLACEMENTCOMMAND.OBJ|C:\PROGRAM FILES (X86)\STEAM\STEAMAPPS\COMMON\EMERGENCY 2017\SDK\SAMPLE_PLUGINS\PLUGIN_DEKONP\TMP\VC11\X64_RELEASE\PLUGIN_DEKONP\TENTDISPLACEMENTCOMMANDMODE.OBJ|C:\PROGRAM FILES (X86)\STEAM\STEAMAPPS\COMMON\EMERGENCY 2017\SDK\SAMPLE_PLUGINS\PLUGIN_DEKONP\TMP\VC11\X64_RELEASE\PLUGIN_DEKONP\TENTPLACEMENTCOMMAND.OBJ|C:\PROGRAM FILES (X86)\STEAM\STEAMAPPS\COMMON\EMERGENCY 2017\SDK\SAMPLE_PLUGINS\PLUGIN_DEKONP\TMP\VC11\X64_RELEASE\PLUGIN_DEKONP\TENTPLACEMENTCOMMANDMODE.OBJ
C:\PROGRAM FILES (X86)\STEAM\STEAMAPPS\COMMON\EMERGENCY 2017\DATA\TEXT_PROJECT\X64\PLUGIN_DEKONP.ILK
C:\PROGRAM FILES (X86)\STEAM\STEAMAPPS\COMMON\EMERGENCY 2017\DATA\TEXT_PROJECT\X64\PLUGIN_DEKONP.DLL
C:\PROGRAM FILES (X86)\STEAM\STEAMAPPS\COMMON\EMERGENCY 2017\DATA\TEXT_PROJECT\X64\PLUGIN_DEKONP.PDB
