^C:\PROGRAM FILES (X86)\STEAM\STEAMAPPS\COMMON\EMERGENCY 2017\SDK\SAMPLE_PLUGINS\PLUGIN_DEKONP\TMP\VC11\X64_RELEASE\PLUGIN_DEKONP\CHANGETOCSACOMMAND.OBJ|C:\PROGRAM FILES (X86)\STEAM\STEAMAPPS\COMMON\EMERGENCY 2017\SDK\SAMPLE_PLUGINS\PLUGIN_DEKONP\TMP\VC11\X64_RELEASE\PLUGIN_DEKONP\CHANGETONORMALCOMMAND.OBJ|C:\PROGRAM FILES (X86)\STEAM\STEAMAPPS\COMMON\EMERGENCY 2017\SDK\SAMPLE_PLUGINS\PLUGIN_DEKONP\TMP\VC11\X64_RELEASE\PLUGIN_DEKONP\DELETEPERSONACTION.OBJ|C:\PROGRAM FILES (X86)\STEAM\STEAMAPPS\COMMON\EMERGENCY 2017\SDK\SAMPLE_PLUGINS\PLUGIN_DEKONP\TMP\VC11\X64_RELEASE\PLUGIN_DEKONP\MAIN.OBJ|C:\PROGRAM FILES (X86)\STEAM\STEAMAPPS\COMMON\EMERGENCY 2017\SDK\SAMPLE_PLUGINS\PLUGIN_DEKONP\TMP\VC11\X64_RELEASE\PLUGIN_DEKONP\PLUGIN.OBJ|C:\PROGRAM FILES (X86)\STEAM\STEAMAPPS\COMMON\EMERGENCY 2017\SDK\SAMPLE_PLUGINS\PLUGIN_DEKONP\TMP\VC11\X64_RELEASE\PLUGIN_DEKONP\PRECOMPILEDHEADER.OBJ|C:\PROGRAM FILES (X86)\STEAM\STEAMAPPS\COMMON\EMERGENCY 2017\SDK\SAMPLE_PLUGINS\PLUGIN_DEKONP\TMP\VC11\X64_RELEASE\PLUGIN_DEKONP\SPAWNACTION.OBJ|C:\PROGRAM FILES (X86)\STEAM\STEAMAPPS\COMMON\EMERGENCY 2017\SDK\SAMPLE_PLUGINS\PLUGIN_DEKONP\TMP\VC11\X64_RELEASE\PLUGIN_DEKONP\SPAWNNORMALACTION.OBJ|C:\PROGRAM FILES (X86)\STEAM\STEAMAPPS\COMMON\EMERGENCY 2017\SDK\SAMPLE_PLUGINS\PLUGIN_DEKONP\TMP\VC11\X64_RELEASE\PLUGIN_DEKONP\SWITCHCOMPONENT.OBJ|C:\PROGRAM FILES (X86)\STEAM\STEAMAPPS\COMMON\EMERGENCY 2017\SDK\SAMPLE_PLUGINS\PLUGIN_DEKONP\TMP\VC11\X64_RELEASE\PLUGIN_DEKONP\SWITCHTWOCOMPONENT.OBJ|C:\PROGRAM FILES (X86)\STEAM\STEAMAPPS\COMMON\EMERGENCY 2017\SDK\SAMPLE_PLUGINS\PLUGIN_DEKONP\TMP\VC11\X64_RELEASE\PLUGIN_DEKONP\TENTDISPLACEMENTCOMMAND.OBJ|C:\PROGRAM FILES (X86)\STEAM\STEAMAPPS\COMMON\EMERGENCY 2017\SDK\SAMPLE_PLUGINS\PLUGIN_DEKONP\TMP\VC11\X64_RELEASE\PLUGIN_DEKONP\TENTDISPLACEMENTCOMMANDMODE.OBJ|C:\PROGRAM FILES (X86)\STEAM\STEAMAPPS\COMMON\EMERGENCY 2017\SDK\SAMPLE_PLUGINS\PLUGIN_DEKONP\TMP\VC11\X64_RELEASE\PLUGIN_DEKONP\TENTPLACEMENTCOMMAND.OBJ|C:\PROGRAM FILES (X86)\STEAM\STEAMAPPS\COMMON\EMERGENCY 2017\SDK\SAMPLE_PLUGINS\PLUGIN_DEKONP\TMP\VC11\X64_RELEASE\PLUGIN_DEKONP\TENTPLACEMENTCOMMANDMODE.OBJ
C:\WINDOWS\GLOBALIZATION\SORTING\SORTDEFAULT.NLS
C:\PROGRAM FILES (X86)\STEAM\STEAMAPPS\COMMON\EMERGENCY 2017\SDK\PLUGIN_API\EXTERNAL\_WINDOWS_X64\CAMP\LIB\CAMP.LIB
C:\PROGRAM FILES (X86)\STEAM\STEAMAPPS\COMMON\EMERGENCY 2017\SDK\PLUGIN_API\LIB\X64R\QSF.LIB
C:\PROGRAM FILES (X86)\STEAM\STEAMAPPS\COMMON\EMERGENCY 2017\SDK\PLUGIN_API\LIB\X64R\QSF_COMPOSITING.LIB
C:\PROGRAM FILES (X86)\STEAM\STEAMAPPS\COMMON\EMERGENCY 2017\SDK\PLUGIN_API\LIB\X64R\QSF_AI.LIB
C:\PROGRAM FILES (X86)\STEAM\STEAMAPPS\COMMON\EMERGENCY 2017\SDK\PLUGIN_API\LIB\X64R\QSF_EDITOR_BASE.LIB
C:\PROGRAM FILES (X86)\STEAM\STEAMAPPS\COMMON\EMERGENCY 2017\SDK\PLUGIN_API\LIB\X64R\QSF_EDITOR.LIB
C:\PROGRAM FILES (X86)\STEAM\STEAMAPPS\COMMON\EMERGENCY 2017\SDK\PLUGIN_API\LIB\X64R\QSF_GAME.LIB
C:\PROGRAM FILES (X86)\STEAM\STEAMAPPS\COMMON\EMERGENCY 2017\SDK\PLUGIN_API\LIB\X64R\QSF_LOGIC.LIB
C:\PROGRAM FILES (X86)\STEAM\STEAMAPPS\COMMON\EMERGENCY 2017\SDK\PLUGIN_API\LIB\X64R\EM5.LIB
C:\PROGRAM FILES (X86)\WINDOWS KITS\8.1\LIB\WINV6.3\UM\X64\KERNEL32.LIB
C:\PROGRAM FILES (X86)\WINDOWS KITS\8.1\LIB\WINV6.3\UM\X64\USER32.LIB
C:\PROGRAM FILES (X86)\WINDOWS KITS\8.1\LIB\WINV6.3\UM\X64\GDI32.LIB
C:\PROGRAM FILES (X86)\WINDOWS KITS\8.1\LIB\WINV6.3\UM\X64\WINSPOOL.LIB
C:\PROGRAM FILES (X86)\WINDOWS KITS\8.1\LIB\WINV6.3\UM\X64\COMDLG32.LIB
C:\PROGRAM FILES (X86)\WINDOWS KITS\8.1\LIB\WINV6.3\UM\X64\ADVAPI32.LIB
C:\PROGRAM FILES (X86)\WINDOWS KITS\8.1\LIB\WINV6.3\UM\X64\SHELL32.LIB
C:\PROGRAM FILES (X86)\WINDOWS KITS\8.1\LIB\WINV6.3\UM\X64\OLE32.LIB
C:\PROGRAM FILES (X86)\WINDOWS KITS\8.1\LIB\WINV6.3\UM\X64\OLEAUT32.LIB
C:\PROGRAM FILES (X86)\WINDOWS KITS\8.1\LIB\WINV6.3\UM\X64\UUID.LIB
C:\PROGRAM FILES (X86)\WINDOWS KITS\8.1\LIB\WINV6.3\UM\X64\ODBC32.LIB
C:\PROGRAM FILES (X86)\WINDOWS KITS\8.1\LIB\WINV6.3\UM\X64\ODBCCP32.LIB
C:\PROGRAM FILES (X86)\STEAM\STEAMAPPS\COMMON\EMERGENCY 2017\SDK\SAMPLE_PLUGINS\PLUGIN_DEKONP\TMP\VC11\X64_RELEASE\PLUGIN_DEKONP\DELETEPERSONACTION.OBJ
C:\PROGRAM FILES (X86)\STEAM\STEAMAPPS\COMMON\EMERGENCY 2017\SDK\SAMPLE_PLUGINS\PLUGIN_DEKONP\TMP\VC11\X64_RELEASE\PLUGIN_DEKONP\SPAWNACTION.OBJ
C:\PROGRAM FILES (X86)\STEAM\STEAMAPPS\COMMON\EMERGENCY 2017\SDK\SAMPLE_PLUGINS\PLUGIN_DEKONP\TMP\VC11\X64_RELEASE\PLUGIN_DEKONP\SPAWNNORMALACTION.OBJ
C:\PROGRAM FILES (X86)\STEAM\STEAMAPPS\COMMON\EMERGENCY 2017\SDK\SAMPLE_PLUGINS\PLUGIN_DEKONP\TMP\VC11\X64_RELEASE\PLUGIN_DEKONP\TENTDISPLACEMENTCOMMANDMODE.OBJ
C:\PROGRAM FILES (X86)\STEAM\STEAMAPPS\COMMON\EMERGENCY 2017\SDK\SAMPLE_PLUGINS\PLUGIN_DEKONP\TMP\VC11\X64_RELEASE\PLUGIN_DEKONP\TENTPLACEMENTCOMMANDMODE.OBJ
C:\PROGRAM FILES (X86)\STEAM\STEAMAPPS\COMMON\EMERGENCY 2017\SDK\SAMPLE_PLUGINS\PLUGIN_DEKONP\TMP\VC11\X64_RELEASE\PLUGIN_DEKONP\CHANGETOCSACOMMAND.OBJ
C:\PROGRAM FILES (X86)\STEAM\STEAMAPPS\COMMON\EMERGENCY 2017\SDK\SAMPLE_PLUGINS\PLUGIN_DEKONP\TMP\VC11\X64_RELEASE\PLUGIN_DEKONP\CHANGETONORMALCOMMAND.OBJ
C:\PROGRAM FILES (X86)\STEAM\STEAMAPPS\COMMON\EMERGENCY 2017\SDK\SAMPLE_PLUGINS\PLUGIN_DEKONP\TMP\VC11\X64_RELEASE\PLUGIN_DEKONP\TENTDISPLACEMENTCOMMAND.OBJ
C:\PROGRAM FILES (X86)\STEAM\STEAMAPPS\COMMON\EMERGENCY 2017\SDK\SAMPLE_PLUGINS\PLUGIN_DEKONP\TMP\VC11\X64_RELEASE\PLUGIN_DEKONP\TENTPLACEMENTCOMMAND.OBJ
C:\PROGRAM FILES (X86)\STEAM\STEAMAPPS\COMMON\EMERGENCY 2017\SDK\SAMPLE_PLUGINS\PLUGIN_DEKONP\TMP\VC11\X64_RELEASE\PLUGIN_DEKONP\SWITCHCOMPONENT.OBJ
C:\PROGRAM FILES (X86)\STEAM\STEAMAPPS\COMMON\EMERGENCY 2017\SDK\SAMPLE_PLUGINS\PLUGIN_DEKONP\TMP\VC11\X64_RELEASE\PLUGIN_DEKONP\SWITCHTWOCOMPONENT.OBJ
C:\PROGRAM FILES (X86)\STEAM\STEAMAPPS\COMMON\EMERGENCY 2017\SDK\SAMPLE_PLUGINS\PLUGIN_DEKONP\TMP\VC11\X64_RELEASE\PLUGIN_DEKONP\MAIN.OBJ
C:\PROGRAM FILES (X86)\STEAM\STEAMAPPS\COMMON\EMERGENCY 2017\SDK\SAMPLE_PLUGINS\PLUGIN_DEKONP\TMP\VC11\X64_RELEASE\PLUGIN_DEKONP\PLUGIN.OBJ
C:\PROGRAM FILES (X86)\STEAM\STEAMAPPS\COMMON\EMERGENCY 2017\SDK\SAMPLE_PLUGINS\PLUGIN_DEKONP\TMP\VC11\X64_RELEASE\PLUGIN_DEKONP\PRECOMPILEDHEADER.OBJ
C:\WINDOWS\SYSTEM32\TZRES.DLL
C:\PROGRAM FILES (X86)\MICROSOFT VISUAL STUDIO\VC\LIB\AMD64\MSVCPRT.LIB
C:\PROGRAM FILES (X86)\STEAM\STEAMAPPS\COMMON\EMERGENCY 2017\SDK\PLUGIN_API\EXTERNAL\_WINDOWS_X64\TBB\LIB\TBBMALLOC_PROXY.LIB
C:\PROGRAM FILES (X86)\STEAM\STEAMAPPS\COMMON\EMERGENCY 2017\SDK\PLUGIN_API\EXTERNAL\_WINDOWS_X64\BOOST\LIB\LIBBOOST_THREAD-MT.LIB
C:\PROGRAM FILES (X86)\STEAM\STEAMAPPS\COMMON\EMERGENCY 2017\SDK\PLUGIN_API\EXTERNAL\_WINDOWS_X64\BOOST\LIB\LIBBOOST_SYSTEM-MT.LIB
C:\PROGRAM FILES (X86)\STEAM\STEAMAPPS\COMMON\EMERGENCY 2017\SDK\PLUGIN_API\EXTERNAL\_WINDOWS_X64\BOOST\LIB\LIBBOOST_DATE_TIME-MT.LIB
C:\PROGRAM FILES (X86)\STEAM\STEAMAPPS\COMMON\EMERGENCY 2017\SDK\PLUGIN_API\EXTERNAL\_WINDOWS_X64\BOOST\LIB\LIBBOOST_CHRONO-MT.LIB
C:\PROGRAM FILES (X86)\MICROSOFT VISUAL STUDIO\VC\LIB\AMD64\MSVCRT.LIB
C:\PROGRAM FILES (X86)\MICROSOFT VISUAL STUDIO\VC\LIB\AMD64\OLDNAMES.LIB
C:\PROGRAM FILES (X86)\MICROSOFT VISUAL STUDIO\VC\LIB\AMD64\VCRUNTIME.LIB
C:\PROGRAM FILES (X86)\WINDOWS KITS\10\LIB\10.0.10240.0\UCRT\X64\UCRT.LIB
